<?xml version="1.0" encoding="UTF-8"?>
<testsuite xmlns:xsi="http://www.w3.org/2001/XMLSchema-instance" xsi:noNamespaceSchemaLocation="https://maven.apache.org/surefire/maven-surefire-plugin/xsd/surefire-test-report.xsd" name="com.almundo.CallCenter.DispatcherTest" time="47.832" tests="3" errors="0" skipped="0" failures="0">
  <properties>
    <property name="awt.toolkit" value="sun.awt.X11.XToolkit"/>
    <property name="file.encoding.pkg" value="sun.io"/>
    <property name="java.specification.version" value="1.8"/>
    <property name="sun.cpu.isalist" value=""/>
    <property name="sun.jnu.encoding" value="UTF-8"/>
    <property name="java.class.path" value="/home/jcamilo/data/repo/almundotest/EjercicioJava/target/test-classes:/home/jcamilo/data/repo/almundotest/EjercicioJava/target/classes:/home/jcamilo/.m2/repository/junit/junit/4.11/junit-4.11.jar:/home/jcamilo/.m2/repository/org/hamcrest/hamcrest-core/1.3/hamcrest-core-1.3.jar:"/>
    <property name="java.vm.vendor" value="Oracle Corporation"/>
    <property name="sun.arch.data.model" value="64"/>
    <property name="java.vendor.url" value="http://java.oracle.com/"/>
    <property name="user.timezone" value=""/>
    <property name="java.vm.specification.version" value="1.8"/>
    <property name="os.name" value="Linux"/>
    <property name="user.country" value="US"/>
    <property name="sun.java.launcher" value="SUN_STANDARD"/>
    <property name="sun.boot.library.path" value="/opt/jdk1.8.0_211/jre/lib/amd64"/>
    <property name="sun.java.command" value="/home/jcamilo/data/repo/almundotest/EjercicioJava/target/surefire/surefirebooter1996181258805336109.jar /home/jcamilo/data/repo/almundotest/EjercicioJava/target/surefire 2019-05-12T20-37-00_640-jvmRun1 surefire752601676763638028tmp surefire_09164351788378208140tmp"/>
    <property name="surefire.test.class.path" value="/home/jcamilo/data/repo/almundotest/EjercicioJava/target/test-classes:/home/jcamilo/data/repo/almundotest/EjercicioJava/target/classes:/home/jcamilo/.m2/repository/junit/junit/4.11/junit-4.11.jar:/home/jcamilo/.m2/repository/org/hamcrest/hamcrest-core/1.3/hamcrest-core-1.3.jar:"/>
    <property name="sun.cpu.endian" value="little"/>
    <property name="user.home" value="/home/jcamilo"/>
    <property name="user.language" value="en"/>
    <property name="java.specification.vendor" value="Oracle Corporation"/>
    <property name="java.home" value="/opt/jdk1.8.0_211/jre"/>
    <property name="basedir" value="/home/jcamilo/data/repo/almundotest/EjercicioJava"/>
    <property name="file.separator" value="/"/>
    <property name="line.separator" value="&#10;"/>
    <property name="java.vm.specification.vendor" value="Oracle Corporation"/>
    <property name="java.specification.name" value="Java Platform API Specification"/>
    <property name="java.awt.graphicsenv" value="sun.awt.X11GraphicsEnvironment"/>
    <property name="surefire.real.class.path" value="/home/jcamilo/data/repo/almundotest/EjercicioJava/target/surefire/surefirebooter1996181258805336109.jar"/>
    <property name="sun.boot.class.path" value="/opt/jdk1.8.0_211/jre/lib/resources.jar:/opt/jdk1.8.0_211/jre/lib/rt.jar:/opt/jdk1.8.0_211/jre/lib/sunrsasign.jar:/opt/jdk1.8.0_211/jre/lib/jsse.jar:/opt/jdk1.8.0_211/jre/lib/jce.jar:/opt/jdk1.8.0_211/jre/lib/charsets.jar:/opt/jdk1.8.0_211/jre/lib/jfr.jar:/opt/jdk1.8.0_211/jre/classes"/>
    <property name="sun.management.compiler" value="HotSpot 64-Bit Tiered Compilers"/>
    <property name="java.runtime.version" value="1.8.0_211-b12"/>
    <property name="user.name" value="jcamilo"/>
    <property name="path.separator" value=":"/>
    <property name="os.version" value="4.9.0-7-amd64"/>
    <property name="java.endorsed.dirs" value="/opt/jdk1.8.0_211/jre/lib/endorsed"/>
    <property name="java.runtime.name" value="Java(TM) SE Runtime Environment"/>
    <property name="file.encoding" value="UTF-8"/>
    <property name="java.vm.name" value="Java HotSpot(TM) 64-Bit Server VM"/>
    <property name="localRepository" value="/home/jcamilo/.m2/repository"/>
    <property name="java.vendor.url.bug" value="http://bugreport.sun.com/bugreport/"/>
    <property name="java.io.tmpdir" value="/tmp"/>
    <property name="java.version" value="1.8.0_211"/>
    <property name="user.dir" value="/home/jcamilo/data/repo/almundotest/EjercicioJava"/>
    <property name="os.arch" value="amd64"/>
    <property name="java.vm.specification.name" value="Java Virtual Machine Specification"/>
    <property name="java.awt.printerjob" value="sun.print.PSPrinterJob"/>
    <property name="sun.os.patch.level" value="unknown"/>
    <property name="java.library.path" value="/usr/java/packages/lib/amd64:/usr/lib64:/lib64:/lib:/usr/lib"/>
    <property name="java.vm.info" value="mixed mode"/>
    <property name="java.vendor" value="Oracle Corporation"/>
    <property name="java.vm.version" value="25.211-b12"/>
    <property name="java.ext.dirs" value="/opt/jdk1.8.0_211/jre/lib/ext:/usr/java/packages/lib/ext"/>
    <property name="sun.io.unicode.encoding" value="UnicodeLittle"/>
    <property name="java.class.version" value="52.0"/>
  </properties>
  <testcase name="test10Calls" classname="com.almundo.CallCenter.DispatcherTest" time="9.481"/>
  <testcase name="testExtra1" classname="com.almundo.CallCenter.DispatcherTest" time="20.759"/>
  <testcase name="testExtra2" classname="com.almundo.CallCenter.DispatcherTest" time="17.388"/>
</testsuite>